{
    "data": [
        {
            "title": "A comme Association",
            "meta": {
                "slug": "a-comme-association-fr",
                "author": "bottero-pierre",
                "show": "http://localhost:8000/api/series/bottero-pierre/a-comme-association-fr",
                "books": "http://localhost:8000/api/series/books/bottero-pierre/a-comme-association-fr"
            },
            "picture": {
                "base": "http://localhost:8000/storage/media/series/1127/conversions/a-comme-association-fr-thumbnail.webp",
                "simple": "http://localhost:8000/storage/media/series/1127/conversions/a-comme-association-fr-simple.jpg",
                "color": "#26366b"
            },
            "language": "fr",
            "authors": [
                {
                    "name": "Pierre Bottero",
                    "meta": {
                        "slug": "bottero-pierre",
                        "show": "http://localhost:8000/api/authors/bottero-pierre"
                    }
                },
                {
                    "name": "Erik L'Homme",
                    "meta": {
                        "slug": "lhomme-erik",
                        "show": "http://localhost:8000/api/authors/lhomme-erik"
                    }
                }
            ],
            "count": 8
        },
        {
            // ...
        }
    ],
    "links": {
        "first": "http://localhost:8000/api/series?page=1",
        "last": "http://localhost:8000/api/series?page=3",
        "prev": null,
        "next": "http://localhost:8000/api/series?page=2"
    },
    "meta": {
        "current_page": 1,
        "from": 1,
        "last_page": 3,
        "links": [
            {
                "url": null,
                "label": "&laquo; Previous",
                "active": false
            },
            {
                "url": "http://localhost:8000/api/series?page=1",
                "label": "1",
                "active": true
            },
            {
                "url": "http://localhost:8000/api/series?page=2",
                "label": "2",
                "active": false
            },
            {
                "url": "http://localhost:8000/api/series?page=3",
                "label": "3",
                "active": false
            },
            {
                "url": "http://localhost:8000/api/series?page=2",
                "label": "Next &raquo;",
                "active": false
            }
        ],
        "path": "http://localhost:8000/api/series",
        "per_page": 32,
        "to": 32,
        "total": 80
    }
}
