{
    "data": [
        {
            "name": "Howard Phillips Lovecraft",
            "meta": {
                "slug": "lovecraft-howard-phillips",
                "show": "http://127.0.0.1:8000/api/authors/lovecraft-howard-phillips"
            },
            "lastname": "Adams",
            "firstname": "Douglas",
            "picture": {
                "base": "http://localhost:8000/storage/media/authors/lovecraft-howard-phillips-thumbnail.webp",
                "openGraph": "http://localhost:8000/storage/media/authors/lovecraft-howard-phillips-open_graph.jpg",
                "simple": "http://localhost:8000/storage/media/authors/lovecraft-howard-phillips-simple.jpg",
                "color": "#7b654f"
            },
            "count": 5
        },
        {
            // ...
        }
    ],
    "links": {
        "first": "http://127.0.0.1:8000/api/authors?page=1",
        "last": "http://127.0.0.1:8000/api/authors?page=2",
        "prev": null,
        "next": "http://127.0.0.1:8000/api/authors?page=2"
    },
    "meta": {
        "current_page": 1,
        "from": 1,
        "last_page": 2,
        "links": [
            { "url": null, "label": "&laquo; Previous", "active": false },
            {
                "url": "http://127.0.0.1:8000/api/authors?page=1",
                "label": "1",
                "active": true
            },
            {
                "url": "http://127.0.0.1:8000/api/authors?page=2",
                "label": "2",
                "active": false
            },
            {
                "url": "http://127.0.0.1:8000/api/authors?page=2",
                "label": "Next &raquo;",
                "active": false
            }
        ],
        "path": "http://127.0.0.1:8000/api/authors",
        "per_page": 32,
        "to": 32,
        "total": 58
    }
}
